<?xml version="1.0" encoding="UTF-8"?>
<svg xmlns="http://www.w3.org/2000/svg" width="94" height="20">
    <linearGradient id="b" x2="0" y2="100%">
        <stop offset="0" stop-color="#bbb" stop-opacity=".1"/>
        <stop offset="1" stop-opacity=".1"/>
    </linearGradient>
    <mask id="anybadge_1">
        <rect width="94" height="20" rx="3" fill="#fff"/>
    </mask>
    <g mask="url(#anybadge_1)">
        <path fill="#555" d="M0 0h34v20H0z"/>
        <path fill="#e02700" d="M34 0h60v20H34z"/>
        <path fill="url(#b)" d="M0 0h94v20H0z"/>
    </g>
    <g fill="#fff" text-anchor="middle" font-family="DejaVu Sans,Verdana,Geneva,sans-serif" font-size="11">
        <text x="18.0" y="15" fill="#010101" fill-opacity=".3">CCW</text>
        <text x="17.0" y="14">CCW</text>
    </g>
    <g fill="#fff" text-anchor="middle" font-family="DejaVu Sans,Verdana,Geneva,sans-serif" font-size="11">
        <text x="65.0" y="15" fill="#010101" fill-opacity=".3">8.7373%</text>
        <text x="64.0" y="14">8.7373%</text>
    </g>
</svg>