<?xml version="1.0" encoding="UTF-8"?>
<svg xmlns="http://www.w3.org/2000/svg" width="111" height="20">
    <linearGradient id="b" x2="0" y2="100%">
        <stop offset="0" stop-color="#bbb" stop-opacity=".1"/>
        <stop offset="1" stop-opacity=".1"/>
    </linearGradient>
    <mask id="anybadge_1">
        <rect width="111" height="20" rx="3" fill="#fff"/>
    </mask>
    <g mask="url(#anybadge_1)">
        <path fill="#555" d="M0 0h44v20H0z"/>
        <path fill="#c5e000" d="M44 0h67v20H44z"/>
        <path fill="url(#b)" d="M0 0h111v20H0z"/>
    </g>
    <g fill="#fff" text-anchor="middle" font-family="DejaVu Sans,Verdana,Geneva,sans-serif" font-size="11">
        <text x="23.0" y="15" fill="#010101" fill-opacity=".3">core1</text>
        <text x="22.0" y="14">core1</text>
    </g>
    <g fill="#fff" text-anchor="middle" font-family="DejaVu Sans,Verdana,Geneva,sans-serif" font-size="11">
        <text x="78.5" y="15" fill="#010101" fill-opacity=".3">56.0875%</text>
        <text x="77.5" y="14">56.0875%</text>
    </g>
</svg>